Webscraping practice
…
[[4]]
# A tibble: 38 × 1
   ``                
   <chr>             
 1 Name              
 2 Quay Walker LB    
 3 Isaiah McDuffie LB
 4 Javon Bullard S   
 5 Edgerrin Cooper LB
 6 Keisean Nixon CB  
 7 Xavier McKinney S 
 8 Eric Wilson LB    
 9 Evan Williams S   
10 Eric Stokes CB    
# ℹ 28 more rows
…
[[1]]
# A tibble: 7 × 13
  Name   ``    ``    ``    ``    ``    ``    ``    ``    ``    ``    ``    ``   
  <chr>  <chr> <chr> <chr> <chr> <chr> <chr> <chr> <chr> <chr> <chr> <chr> <chr>
1 Jorda… <NA>  <NA>  <NA>  <NA>  <NA>  <NA>  <NA>  <NA>  <NA>  <NA>  <NA>  <NA> 
2 Malik… <NA>  <NA>  <NA>  <NA>  <NA>  <NA>  <NA>  <NA>  <NA>  <NA>  <NA>  <NA> 
3 Total  <NA>  <NA>  <NA>  <NA>  <NA>  <NA>  <NA>  <NA>  <NA>  <NA>  <NA>  <NA> 
4 GP     CMP   ATT   CMP%  YDS   AVG   YDS/G LNG   TD    INT   SACK  SYL   RTG  
5 6      124   201   61.7  1,547 7.7   257.8 70    15    9     7     62    91.8 
6 4      29    39    74.4  380   9.7   95.0  51    3     0     5     16    130.3
7 8      153   240   63.8  1,927 8.0   240.9 70    18    9     12    78    98.0 

[[2]]
# A tibble: 23 × 11
   Name              ``    ``    ``    ``    ``    ``    ``    ``    ``    ``   
   <chr>             <chr> <chr> <chr> <chr> <chr> <chr> <chr> <chr> <chr> <chr>
 1 Josh Jacobs RB    <NA>  <NA>  <NA>  <NA>  <NA>  <NA>  <NA>  <NA>  <NA>  <NA> 
 2 Emanuel Wilson RB <NA>  <NA>  <NA>  <NA>  <NA>  <NA>  <NA>  <NA>  <NA>  <NA> 
 3 Malik Willis QB   <NA>  <NA>  <NA>  <NA>  <NA>  <NA>  <NA>  <NA>  <NA>  <NA> 
 4 Jayden Reed WR    <NA>  <NA>  <NA>  <NA>  <NA>  <NA>  <NA>  <NA>  <NA>  <NA> 
 5 Chris Brooks RB   <NA>  <NA>  <NA>  <NA>  <NA>  <NA>  <NA>  <NA>  <NA>  <NA> 
 6 Bo Melton WR      <NA>  <NA>  <NA>  <NA>  <NA>  <NA>  <NA>  <NA>  <NA>  <NA> 
 7 Jordan Love QB    <NA>  <NA>  <NA>  <NA>  <NA>  <NA>  <NA>  <NA>  <NA>  <NA> 
 8 MarShawn Lloyd RB <NA>  <NA>  <NA>  <NA>  <NA>  <NA>  <NA>  <NA>  <NA>  <NA> 
 9 Tucker Kraft TE   <NA>  <NA>  <NA>  <NA>  <NA>  <NA>  <NA>  <NA>  <NA>  <NA> 
10 Christian Watson… <NA>  <NA>  <NA>  <NA>  <NA>  <NA>  <NA>  <NA>  <NA>  <NA> 
# ℹ 13 more rows

[[3]]
# A tibble: 29 × 13
   Name  ``    ``    ``    ``    ``    ``    ``    ``    ``    ``    ``    ``   
   <chr> <chr> <chr> <chr> <chr> <chr> <chr> <chr> <chr> <chr> <chr> <chr> <chr>
 1 Jayd… <NA>  <NA>  <NA>  <NA>  <NA>  <NA>  <NA>  <NA>  <NA>  <NA>  <NA>  <NA> 
 2 Rome… <NA>  <NA>  <NA>  <NA>  <NA>  <NA>  <NA>  <NA>  <NA>  <NA>  <NA>  <NA> 
 3 Tuck… <NA>  <NA>  <NA>  <NA>  <NA>  <NA>  <NA>  <NA>  <NA>  <NA>  <NA>  <NA> 
 4 Chri… <NA>  <NA>  <NA>  <NA>  <NA>  <NA>  <NA>  <NA>  <NA>  <NA>  <NA>  <NA> 
 5 Dont… <NA>  <NA>  <NA>  <NA>  <NA>  <NA>  <NA>  <NA>  <NA>  <NA>  <NA>  <NA> 
 6 Josh… <NA>  <NA>  <NA>  <NA>  <NA>  <NA>  <NA>  <NA>  <NA>  <NA>  <NA>  <NA> 
 7 Bo M… <NA>  <NA>  <NA>  <NA>  <NA>  <NA>  <NA>  <NA>  <NA>  <NA>  <NA>  <NA> 
 8 Eman… <NA>  <NA>  <NA>  <NA>  <NA>  <NA>  <NA>  <NA>  <NA>  <NA>  <NA>  <NA> 
 9 Ben … <NA>  <NA>  <NA>  <NA>  <NA>  <NA>  <NA>  <NA>  <NA>  <NA>  <NA>  <NA> 
10 Mali… <NA>  <NA>  <NA>  <NA>  <NA>  <NA>  <NA>  <NA>  <NA>  <NA>  <NA>  <NA> 
# ℹ 19 more rows

[[4]]
# A tibble: 77 × 16
   ``    ``    ``    ``    ``    ``    ``    ``    ``    ``    ``    ``    ``   
   <chr> <chr> <chr> <chr> <chr> <chr> <chr> <chr> <chr> <chr> <chr> <chr> <chr>
 1 Name  <NA>  <NA>  <NA>  <NA>  <NA>  <NA>  <NA>  <NA>  <NA>  <NA>  <NA>  <NA> 
 2 Quay… <NA>  <NA>  <NA>  <NA>  <NA>  <NA>  <NA>  <NA>  <NA>  <NA>  <NA>  <NA> 
 3 Isai… <NA>  <NA>  <NA>  <NA>  <NA>  <NA>  <NA>  <NA>  <NA>  <NA>  <NA>  <NA> 
 4 Javo… <NA>  <NA>  <NA>  <NA>  <NA>  <NA>  <NA>  <NA>  <NA>  <NA>  <NA>  <NA> 
 5 Edge… <NA>  <NA>  <NA>  <NA>  <NA>  <NA>  <NA>  <NA>  <NA>  <NA>  <NA>  <NA> 
 6 Keis… <NA>  <NA>  <NA>  <NA>  <NA>  <NA>  <NA>  <NA>  <NA>  <NA>  <NA>  <NA> 
 7 Xavi… <NA>  <NA>  <NA>  <NA>  <NA>  <NA>  <NA>  <NA>  <NA>  <NA>  <NA>  <NA> 
 8 Eric… <NA>  <NA>  <NA>  <NA>  <NA>  <NA>  <NA>  <NA>  <NA>  <NA>  <NA>  <NA> 
 9 Evan… <NA>  <NA>  <NA>  <NA>  <NA>  <NA>  <NA>  <NA>  <NA>  <NA>  <NA>  <NA> 
10 Eric… <NA>  <NA>  <NA>  <NA>  <NA>  <NA>  <NA>  <NA>  <NA>  <NA>  <NA>  <NA> 
# ℹ 67 more rows
# ℹ 3 more variables: `` <chr>, `` <chr>, `` <chr>

[[5]]
# A tibble: 27 × 10
   ``                  ``    ``    ``    ``    ``    ``    ``    ``    ``   
   <chr>               <chr> <chr> <chr> <chr> <chr> <chr> <chr> <chr> <chr>
 1 Name                <NA>  <NA>  <NA>  <NA>  <NA>  <NA>  <NA>  <NA>  <NA> 
 2 Brayden Narveson PK <NA>  <NA>  <NA>  <NA>  <NA>  <NA>  <NA>  <NA>  <NA> 
 3 Tucker Kraft TE     <NA>  <NA>  <NA>  <NA>  <NA>  <NA>  <NA>  <NA>  <NA> 
 4 Josh Jacobs RB      <NA>  <NA>  <NA>  <NA>  <NA>  <NA>  <NA>  <NA>  <NA> 
 5 Jayden Reed WR      <NA>  <NA>  <NA>  <NA>  <NA>  <NA>  <NA>  <NA>  <NA> 
 6 Dontayvion Wicks WR <NA>  <NA>  <NA>  <NA>  <NA>  <NA>  <NA>  <NA>  <NA> 
 7 Brandon McManus PK  <NA>  <NA>  <NA>  <NA>  <NA>  <NA>  <NA>  <NA>  <NA> 
 8 Christian Watson WR <NA>  <NA>  <NA>  <NA>  <NA>  <NA>  <NA>  <NA>  <NA> 
 9 Romeo Doubs WR      <NA>  <NA>  <NA>  <NA>  <NA>  <NA>  <NA>  <NA>  <NA> 
10 Malik Willis QB     <NA>  <NA>  <NA>  <NA>  <NA>  <NA>  <NA>  <NA>  <NA> 
# ℹ 17 more rows
…
